{
  "id": "projects/coreos-cloud/global/images",
  "items": [
    {
      "archiveSizeBytes": "217341810",
      "creationTimestamp": "2014-11-08T08:14:39.763-08:00",
      "deprecated": {
        "replacement": "https://www.googleapis.com/compute/v1/projects/coreos-cloud/global/images/coreos-alpha-534-1-0-v20141219",
        "state": "DEPRECATED"
      },
      "description": "CoreOS alpha 494.0.0",
      "diskSizeGb": "9",
      "id": "16984733952836989634",
      "kind": "compute#image",
      "name": "coreos-alpha-494-0-0-v20141108",
      "rawDisk": {
        "containerType": "TAR",
        "source": ""
      },
      "selfLink": "https://www.googleapis.com/compute/v1/projects/coreos-cloud/global/images/coreos-alpha-494-0-0-v20141108",
      "sourceType": "RAW",
      "status": "READY"
    },
    {
      "archiveSizeBytes": "220202141",
      "creationTimestamp": "2014-11-19T11:58:34.839-08:00",
      "deprecated": {
        "replacement": "https://www.googleapis.com/compute/v1/projects/coreos-cloud/global/images/coreos-alpha-534-1-0-v20141219",
        "state": "DEPRECATED"
      },
      "description": "CoreOS alpha 505.1.0",
      "diskSizeGb": "9",
      "id": "6377208203517836508",
      "kind": "compute#image",
      "name": "coreos-alpha-505-1-0-v20141119",
      "rawDisk": {
        "containerType": "TAR",
        "source": ""
      },
      "selfLink": "https://www.googleapis.com/compute/v1/projects/coreos-cloud/global/images/coreos-alpha-505-1-0-v20141119",
      "sourceType": "RAW",
      "status": "READY"
    },
    {
      "archiveSizeBytes": "220243128",
      "creationTimestamp": "2014-11-20T16:53:33.724-08:00",
      "deprecated": {
        "replacement": "https://www.googleapis.com/compute/v1/projects/coreos-cloud/global/images/coreos-alpha-534-1-0-v20141219",
        "state": "DEPRECATED"
      },
      "description": "CoreOS alpha 507.0.0",
      "diskSizeGb": "9",
      "id": "2812520923267400303",
      "kind": "compute#image",
      "name": "coreos-alpha-507-0-0-v20141121",
      "rawDisk": {
        "containerType": "TAR",
        "source": ""
      },
      "selfLink": "https://www.googleapis.com/compute/v1/projects/coreos-cloud/global/images/coreos-alpha-507-0-0-v20141121",
      "sourceType": "RAW",
      "status": "READY"
    },
    {
      "archiveSizeBytes": "215896616",
      "creationTimestamp": "2014-11-22T12:07:41.631-08:00",
      "deprecated": {
        "replacement": "https://www.googleapis.com/compute/v1/projects/coreos-cloud/global/images/coreos-alpha-534-1-0-v20141219",
        "state": "DEPRECATED"
      },
      "description": "CoreOS alpha 509.0.0",
      "diskSizeGb": "9",
      "id": "17634437931750438301",
      "kind": "compute#image",
      "name": "coreos-alpha-509-0-0-v20141122",
      "rawDisk": {
        "containerType": "TAR",
        "source": ""
      },
      "selfLink": "https://www.googleapis.com/compute/v1/projects/coreos-cloud/global/images/coreos-alpha-509-0-0-v20141122",
      "sourceType": "RAW",
      "status": "READY"
    },
    {
      "archiveSizeBytes": "220158301",
      "creationTimestamp": "2014-11-24T13:54:40.347-08:00",
      "deprecated": {
        "replacement": "https://www.googleapis.com/compute/v1/projects/coreos-cloud/global/images/coreos-alpha-534-1-0-v20141219",
        "state": "DEPRECATED"
      },
      "description": "CoreOS alpha 509.1.0",
      "diskSizeGb": "9",
      "id": "15997978649119901106",
      "kind": "compute#image",
      "name": "coreos-alpha-509-1-0-v20141124",
      "rawDisk": {
        "containerType": "TAR",
        "source": ""
      },
      "selfLink": "https://www.googleapis.com/compute/v1/projects/coreos-cloud/global/images/coreos-alpha-509-1-0-v20141124",
      "sourceType": "RAW",
      "status": "READY"
    },
    {
      "archiveSizeBytes": "220671632",
      "creationTimestamp": "2014-12-05T11:12:11.016-08:00",
      "deprecated": {
        "replacement": "https://www.googleapis.com/compute/v1/projects/coreos-cloud/global/images/coreos-alpha-534-1-0-v20141219",
        "state": "DEPRECATED"
      },
      "description": "CoreOS alpha 522.0.0",
      "diskSizeGb": "9",
      "id": "3688346254254255171",
      "kind": "compute#image",
      "name": "coreos-alpha-522-0-0-v20141205",
      "rawDisk": {
        "containerType": "TAR",
        "source": ""
      },
      "selfLink": "https://www.googleapis.com/compute/v1/projects/coreos-cloud/global/images/coreos-alpha-522-0-0-v20141205",
      "sourceType": "RAW",
      "status": "READY"
    },
    {
      "archiveSizeBytes": "220746106",
      "creationTimestamp": "2014-12-11T12:59:25.259-08:00",
      "deprecated": {
        "replacement": "https://www.googleapis.com/compute/v1/projects/coreos-cloud/global/images/coreos-alpha-534-1-0-v20141219",
        "state": "DEPRECATED"
      },
      "description": "CoreOS alpha 522.1.0",
      "diskSizeGb": "9",
      "id": "17994276440547647719",
      "kind": "compute#image",
      "name": "coreos-alpha-522-1-0-v20141211",
      "rawDisk": {
        "containerType": "TAR",
        "source": ""
      },
      "selfLink": "https://www.googleapis.com/compute/v1/projects/coreos-cloud/global/images/coreos-alpha-522-1-0-v20141211",
      "sourceType": "RAW",
      "status": "READY"
    },
    {
      "archiveSizeBytes": "220706464",
      "creationTimestamp": "2014-12-17T11:07:40.413-08:00",
      "deprecated": {
        "replacement": "https://www.googleapis.com/compute/v1/projects/coreos-cloud/global/images/coreos-alpha-534-1-0-v20141219",
        "state": "DEPRECATED"
      },
      "description": "CoreOS alpha 522.2.0",
      "diskSizeGb": "9",
      "id": "14750233033823203541",
      "kind": "compute#image",
      "name": "coreos-alpha-522-2-0-v20141217",
      "rawDisk": {
        "containerType": "TAR",
        "source": ""
      },
      "selfLink": "https://www.googleapis.com/compute/v1/projects/coreos-cloud/global/images/coreos-alpha-522-2-0-v20141217",
      "sourceType": "RAW",
      "status": "READY"
    },
    {
      "archiveSizeBytes": "150760714",
      "creationTimestamp": "2014-12-18T16:02:57.257-08:00",
      "deprecated": {
        "replacement": "https://www.googleapis.com/compute/v1/projects/coreos-cloud/global/images/coreos-alpha-536-0-0-v20141220",
        "state": "DEPRECATED"
      },
      "description": "CoreOS alpha 534.1.0",
      "diskSizeGb": "9",
      "id": "9382201742109997553",
      "kind": "compute#image",
      "name": "coreos-alpha-534-1-0-v20141219",
      "rawDisk": {
        "containerType": "TAR",
        "source": ""
      },
      "selfLink": "https://www.googleapis.com/compute/v1/projects/coreos-cloud/global/images/coreos-alpha-534-1-0-v20141219",
      "sourceType": "RAW",
      "status": "READY"
    },
    {
      "archiveSizeBytes": "150727446",
      "creationTimestamp": "2014-12-20T13:19:46.596-08:00",
      "deprecated": {
        "replacement": "https://www.googleapis.com/compute/v1/projects/coreos-cloud/global/images/coreos-alpha-540-0-0-v20141223",
        "state": "DEPRECATED"
      },
      "description": "CoreOS alpha 536.0.0",
      "diskSizeGb": "9",
      "id": "17499586025310826725",
      "kind": "compute#image",
      "name": "coreos-alpha-536-0-0-v20141220",
      "rawDisk": {
        "containerType": "TAR",
        "source": ""
      },
      "selfLink": "https://www.googleapis.com/compute/v1/projects/coreos-cloud/global/images/coreos-alpha-536-0-0-v20141220",
      "sourceType": "RAW",
      "status": "READY"
    },
    {
      "archiveSizeBytes": "147379024",
      "creationTimestamp": "2014-12-23T13:10:58.507-08:00",
      "deprecated": {
        "replacement": "https://www.googleapis.com/compute/v1/projects/coreos-cloud/global/images/coreos-alpha-457-0-0-v20141231",
        "state": "DEPRECATED"
      },
      "description": "CoreOS alpha 540.0.0",
      "diskSizeGb": "9",
      "id": "2686834707529846588",
      "kind": "compute#image",
      "name": "coreos-alpha-540-0-0-v20141223",
      "rawDisk": {
        "containerType": "TAR",
        "source": ""
      },
      "selfLink": "https://www.googleapis.com/compute/v1/projects/coreos-cloud/global/images/coreos-alpha-540-0-0-v20141223",
      "sourceType": "RAW",
      "status": "READY"
    },
    {
      "archiveSizeBytes": "152463033",
      "creationTimestamp": "2014-12-31T12:28:37.804-08:00",
      "deprecated": {
        "replacement": "https://www.googleapis.com/compute/v1/projects/coreos-cloud/global/images/coreos-alpha-549-0-0-v20150102",
        "state": "DEPRECATED"
      },
      "description": "CoreOS alpha 547.0.0",
      "diskSizeGb": "9",
      "id": "9818127857091960577",
      "kind": "compute#image",
      "name": "coreos-alpha-547-0-0-v20141231",
      "rawDisk": {
        "containerType": "TAR",
        "source": ""
      },
      "selfLink": "https://www.googleapis.com/compute/v1/projects/coreos-cloud/global/images/coreos-alpha-547-0-0-v20141231",
      "sourceType": "RAW",
      "status": "READY"
    },
    {
      "archiveSizeBytes": "152999401",
      "creationTimestamp": "2015-01-01T16:55:00.753-08:00",
      "deprecated": {
        "replacement": "https://www.googleapis.com/compute/v1/projects/coreos-cloud/global/images/coreos-alpha-550-0-0-v20150102",
        "state": "DEPRECATED"
      },
      "description": "CoreOS alpha 549.0.0",
      "diskSizeGb": "9",
      "id": "18109895556490032015",
      "kind": "compute#image",
      "name": "coreos-alpha-549-0-0-v20150102",
      "rawDisk": {
        "containerType": "TAR",
        "source": ""
      },
      "selfLink": "https://www.googleapis.com/compute/v1/projects/coreos-cloud/global/images/coreos-alpha-549-0-0-v20150102",
      "sourceType": "RAW",
      "status": "READY"
    },
    {
      "archiveSizeBytes": "152400391",
      "creationTimestamp": "2015-01-01T22:16:46.534-08:00",
      "deprecated": {
        "replacement": "https://www.googleapis.com/compute/v1/projects/coreos-cloud/global/images/coreos-alpha-554-0-0-v20150107",
        "state": "DEPRECATED"
      },
      "description": "CoreOS alpha 550.0.0",
      "diskSizeGb": "9",
      "id": "14701823659166715816",
      "kind": "compute#image",
      "name": "coreos-alpha-550-0-0-v20150102",
      "rawDisk": {
        "containerType": "TAR",
        "source": ""
      },
      "selfLink": "https://www.googleapis.com/compute/v1/projects/coreos-cloud/global/images/coreos-alpha-550-0-0-v20150102",
      "sourceType": "RAW",
      "status": "READY"
    },
    {
      "archiveSizeBytes": "152490884",
      "creationTimestamp": "2015-01-06T17:19:37.593-08:00",
      "deprecated": {
        "replacement": "https://www.googleapis.com/compute/v1/projects/coreos-cloud/global/images/coreos-alpha-557-0-0-v20150109",
        "state": "DEPRECATED"
      },
      "description": "CoreOS alpha 554.0.0",
      "diskSizeGb": "9",
      "id": "1622799869036835773",
      "kind": "compute#image",
      "name": "coreos-alpha-554-0-0-v20150107",
      "rawDisk": {
        "containerType": "TAR",
        "source": ""
      },
      "selfLink": "https://www.googleapis.com/compute/v1/projects/coreos-cloud/global/images/coreos-alpha-554-0-0-v20150107",
      "sourceType": "RAW",
      "status": "READY"
    },
    {
      "archiveSizeBytes": "152403421",
      "creationTimestamp": "2015-01-09T13:07:33.555-08:00",
      "deprecated": {
        "replacement": "https://www.googleapis.com/compute/v1/projects/coreos-cloud/global/images/coreos-alpha-561-0-0-v20150114",
        "state": "DEPRECATED"
      },
      "description": "CoreOS alpha 557.0.0",
      "diskSizeGb": "9",
      "id": "11588132655261924242",
      "kind": "compute#image",
      "name": "coreos-alpha-557-0-0-v20150109",
      "rawDisk": {
        "containerType": "TAR",
        "source": ""
      },
      "selfLink": "https://www.googleapis.com/compute/v1/projects/coreos-cloud/global/images/coreos-alpha-557-0-0-v20150109",
      "sourceType": "RAW",
      "status": "READY"
    },
    {
      "archiveSizeBytes": "151900574",
      "creationTimestamp": "2015-01-14T15:18:47.468-08:00",
      "deprecated": {
        "replacement": "https://www.googleapis.com/compute/v1/projects/coreos-cloud/global/images/coreos-alpha-571-0-0-v20150123",
        "state": "DEPRECATED"
      },
      "description": "CoreOS alpha 561.0.0",
      "diskSizeGb": "9",
      "id": "7240029095544217763",
      "kind": "compute#image",
      "name": "coreos-alpha-561-0-0-v20150114",
      "rawDisk": {
        "containerType": "TAR",
        "source": ""
      },
      "selfLink": "https://www.googleapis.com/compute/v1/projects/coreos-cloud/global/images/coreos-alpha-561-0-0-v20150114",
      "sourceType": "RAW",
      "status": "READY"
    },
    {
      "archiveSizeBytes": "151982001",
      "creationTimestamp": "2015-01-23T12:00:36.109-08:00",
      "deprecated": {
        "replacement": "https://www.googleapis.com/compute/v1/projects/coreos-cloud/global/images/coreos-alpha-575-0-0-v20150128",
        "state": "DEPRECATED"
      },
      "description": "CoreOS alpha 571.0.0",
      "diskSizeGb": "9",
      "id": "9623830545345482499",
      "kind": "compute#image",
      "name": "coreos-alpha-571-0-0-v20150123",
      "rawDisk": {
        "containerType": "TAR",
        "source": ""
      },
      "selfLink": "https://www.googleapis.com/compute/v1/projects/coreos-cloud/global/images/coreos-alpha-571-0-0-v20150123",
      "sourceType": "RAW",
      "status": "READY"
    },
    {
      "archiveSizeBytes": "150027521",
      "creationTimestamp": "2015-01-27T17:49:06.676-08:00",
      "deprecated": {
        "replacement": "https://www.googleapis.com/compute/v1/projects/coreos-cloud/global/images/coreos-alpha-584-0-0-v20150205",
        "state": "DEPRECATED"
      },
      "description": "CoreOS alpha 575.0.0",
      "diskSizeGb": "9",
      "id": "7801077045852418827",
      "kind": "compute#image",
      "name": "coreos-alpha-575-0-0-v20150128",
      "rawDisk": {
        "containerType": "TAR",
        "source": ""
      },
      "selfLink": "https://www.googleapis.com/compute/v1/projects/coreos-cloud/global/images/coreos-alpha-575-0-0-v20150128",
      "sourceType": "RAW",
      "status": "READY"
    },
    {
      "archiveSizeBytes": "153704200",
      "creationTimestamp": "2015-02-05T10:21:16.162-08:00",
      "deprecated": {
        "replacement": "https://www.googleapis.com/compute/v1/projects/coreos-cloud/global/images/coreos-alpha-591-0-0-v20150212",
        "state": "DEPRECATED"
      },
      "description": "CoreOS alpha 584.0.0",
      "diskSizeGb": "9",
      "id": "5993064702258913085",
      "kind": "compute#image",
      "name": "coreos-alpha-584-0-0-v20150205",
      "rawDisk": {
        "containerType": "TAR",
        "source": ""
      },
      "selfLink": "https://www.googleapis.com/compute/v1/projects/coreos-cloud/global/images/coreos-alpha-584-0-0-v20150205",
      "sourceType": "RAW",
      "status": "READY"
    },
    {
      "archiveSizeBytes": "150220059",
      "creationTimestamp": "2015-02-12T09:57:27.892-08:00",
      "deprecated": {
        "replacement": "https://www.googleapis.com/compute/v1/projects/coreos-cloud/global/images/coreos-alpha-592-0-0-v20150214",
        "state": "DEPRECATED"
      },
      "description": "CoreOS alpha 591.0.0",
      "diskSizeGb": "9",
      "id": "6115019161312238623",
      "kind": "compute#image",
      "name": "coreos-alpha-591-0-0-v20150212",
      "rawDisk": {
        "containerType": "TAR",
        "source": ""
      },
      "selfLink": "https://www.googleapis.com/compute/v1/projects/coreos-cloud/global/images/coreos-alpha-591-0-0-v20150212",
      "sourceType": "RAW",
      "status": "READY"
    },
    {
      "archiveSizeBytes": "153767471",
      "creationTimestamp": "2015-02-13T16:53:52.637-08:00",
      "deprecated": {
        "replacement": "https://www.googleapis.com/compute/v1/projects/coreos-cloud/global/images/coreos-alpha-593-0-0-v20150214",
        "state": "DEPRECATED"
      },
      "description": "CoreOS alpha 592.0.0",
      "diskSizeGb": "9",
      "id": "6115497556052291289",
      "kind": "compute#image",
      "name": "coreos-alpha-592-0-0-v20150214",
      "rawDisk": {
        "containerType": "TAR",
        "source": ""
      },
      "selfLink": "https://www.googleapis.com/compute/v1/projects/coreos-cloud/global/images/coreos-alpha-592-0-0-v20150214",
      "sourceType": "RAW",
      "status": "READY"
    },
    {
      "archiveSizeBytes": "153795628",
      "creationTimestamp": "2015-02-14T00:26:25.180-08:00",
      "deprecated": {
        "replacement": "https://www.googleapis.com/compute/v1/projects/coreos-cloud/global/images/coreos-alpha-598-0-0-v20150219",
        "state": "DEPRECATED"
      },
      "description": "CoreOS alpha 593.0.0",
      "diskSizeGb": "9",
      "id": "6115614180414442242",
      "kind": "compute#image",
      "name": "coreos-alpha-593-0-0-v20150214",
      "rawDisk": {
        "containerType": "TAR",
        "source": ""
      },
      "selfLink": "https://www.googleapis.com/compute/v1/projects/coreos-cloud/global/images/coreos-alpha-593-0-0-v20150214",
      "sourceType": "RAW",
      "status": "READY"
    },
    {
      "archiveSizeBytes": "153838890",
      "creationTimestamp": "2015-02-19T10:03:22.263-08:00",
      "deprecated": {
        "replacement": "https://www.googleapis.com/compute/v1/projects/coreos-cloud/global/images/coreos-alpha-604-0-0-v20150226",
        "state": "DEPRECATED"
      },
      "description": "CoreOS alpha 598.0.0",
      "diskSizeGb": "9",
      "id": "6117618284099725801",
      "kind": "compute#image",
      "name": "coreos-alpha-598-0-0-v20150219",
      "rawDisk": {
        "containerType": "TAR",
        "source": ""
      },
      "selfLink": "https://www.googleapis.com/compute/v1/projects/coreos-cloud/global/images/coreos-alpha-598-0-0-v20150219",
      "sourceType": "RAW",
      "status": "READY"
    },
    {
      "archiveSizeBytes": "150389796",
      "creationTimestamp": "2015-02-26T10:10:44.596-08:00",
      "deprecated": {
        "replacement": "https://www.googleapis.com/compute/v1/projects/coreos-cloud/global/images/coreos-alpha-607-0-0-v20150228",
        "state": "DEPRECATED"
      },
      "description": "CoreOS alpha 604.0.0",
      "diskSizeGb": "9",
      "id": "6120217776839728038",
      "kind": "compute#image",
      "name": "coreos-alpha-604-0-0-v20150226",
      "rawDisk": {
        "containerType": "TAR",
        "source": ""
      },
      "selfLink": "https://www.googleapis.com/compute/v1/projects/coreos-cloud/global/images/coreos-alpha-604-0-0-v20150226",
      "sourceType": "RAW",
      "status": "READY"
    },
    {
      "archiveSizeBytes": "150624548",
      "creationTimestamp": "2015-02-28T13:03:22.587-08:00",
      "deprecated": {
        "replacement": "https://www.googleapis.com/compute/v1/projects/coreos-cloud/global/images/coreos-alpha-612-0-0-v20150305",
        "state": "DEPRECATED"
      },
      "description": "CoreOS alpha 607.0.0",
      "diskSizeGb": "9",
      "id": "6121004435521442650",
      "kind": "compute#image",
      "name": "coreos-alpha-607-0-0-v20150228",
      "rawDisk": {
        "containerType": "TAR",
        "source": ""
      },
      "selfLink": "https://www.googleapis.com/compute/v1/projects/coreos-cloud/global/images/coreos-alpha-607-0-0-v20150228",
      "sourceType": "RAW",
      "status": "READY"
    },
    {
      "archiveSizeBytes": "151244950",
      "creationTimestamp": "2015-03-05T10:18:48.546-08:00",
      "deprecated": {
        "replacement": "https://www.googleapis.com/compute/v1/projects/coreos-cloud/global/images/coreos-alpha-612-1-0-v20150306",
        "state": "DEPRECATED"
      },
      "description": "CoreOS alpha 612.0.0",
      "diskSizeGb": "9",
      "id": "6401195221347279079",
      "kind": "compute#image",
      "name": "coreos-alpha-612-0-0-v20150305",
      "rawDisk": {
        "containerType": "TAR",
        "source": ""
      },
      "selfLink": "https://www.googleapis.com/compute/v1/projects/coreos-cloud/global/images/coreos-alpha-612-0-0-v20150305",
      "sourceType": "RAW",
      "status": "READY"
    },
    {
      "archiveSizeBytes": "150548884",
      "creationTimestamp": "2015-03-06T11:43:55.109-08:00",
      "deprecated": {
        "replacement": "https://www.googleapis.com/compute/v1/projects/coreos-cloud/global/images/coreos-alpha-618-0-0-v20150312",
        "state": "DEPRECATED"
      },
      "description": "CoreOS alpha 612.1.0",
      "diskSizeGb": "9",
      "id": "8253636456020950420",
      "kind": "compute#image",
      "name": "coreos-alpha-612-1-0-v20150306",
      "rawDisk": {
        "containerType": "TAR",
        "source": ""
      },
      "selfLink": "https://www.googleapis.com/compute/v1/projects/coreos-cloud/global/images/coreos-alpha-612-1-0-v20150306",
      "sourceType": "RAW",
      "status": "READY"
    },
    {
      "archiveSizeBytes": "165052921",
      "creationTimestamp": "2015-03-12T09:55:58.020-07:00",
      "deprecated": {
        "replacement": "https://www.googleapis.com/compute/v1/projects/coreos-cloud/global/images/coreos-alpha-626-0-0-v20150319",
        "state": "DEPRECATED"
      },
      "description": "CoreOS alpha 618.0.0",
      "diskSizeGb": "9",
      "id": "5550229468362865649",
      "kind": "compute#image",
      "name": "coreos-alpha-618-0-0-v20150312",
      "rawDisk": {
        "containerType": "TAR",
        "source": ""
      },
      "selfLink": "https://www.googleapis.com/compute/v1/projects/coreos-cloud/global/images/coreos-alpha-618-0-0-v20150312",
      "sourceType": "RAW",
      "status": "READY"
    },
    {
      "archiveSizeBytes": "168418815",
      "creationTimestamp": "2015-03-19T10:02:41.689-07:00",
      "deprecated": {
        "replacement": "https://www.googleapis.com/compute/v1/projects/coreos-cloud/global/images/coreos-alpha-633-1-0-v20150326",
        "state": "DEPRECATED"
      },
      "description": "CoreOS alpha 626.0.0",
      "diskSizeGb": "9",
      "id": "5006347975734509534",
      "kind": "compute#image",
      "name": "coreos-alpha-626-0-0-v20150319",
      "rawDisk": {
        "containerType": "TAR",
        "source": ""
      },
      "selfLink": "https://www.googleapis.com/compute/v1/projects/coreos-cloud/global/images/coreos-alpha-626-0-0-v20150319",
      "sourceType": "RAW",
      "status": "READY"
    },
    {
      "archiveSizeBytes": "172151047",
      "creationTimestamp": "2015-03-26T10:02:30.365-07:00",
      "deprecated": {
        "replacement": "https://www.googleapis.com/compute/v1/projects/coreos-cloud/global/images/coreos-alpha-640-0-0-v20150402",
        "state": "DEPRECATED"
      },
      "description": "CoreOS alpha 633.1.0",
      "diskSizeGb": "9",
      "id": "4858676468839449929",
      "kind": "compute#image",
      "name": "coreos-alpha-633-1-0-v20150326",
      "rawDisk": {
        "containerType": "TAR",
        "source": ""
      },
      "selfLink": "https://www.googleapis.com/compute/v1/projects/coreos-cloud/global/images/coreos-alpha-633-1-0-v20150326",
      "sourceType": "RAW",
      "status": "READY"
    },
    {
      "archiveSizeBytes": "169333756",
      "creationTimestamp": "2015-04-02T10:12:00.159-07:00",
      "deprecated": {
        "replacement": "https://www.googleapis.com/compute/v1/projects/coreos-cloud/global/images/coreos-alpha-647-0-0-v20150409",
        "state": "DEPRECATED"
      },
      "description": "CoreOS alpha 640.0.0",
      "diskSizeGb": "9",
      "id": "6032864628565919375",
      "kind": "compute#image",
      "name": "coreos-alpha-640-0-0-v20150402",
      "rawDisk": {
        "containerType": "TAR",
        "source": ""
      },
      "selfLink": "https://www.googleapis.com/compute/v1/projects/coreos-cloud/global/images/coreos-alpha-640-0-0-v20150402",
      "sourceType": "RAW",
      "status": "READY"
    },
    {
      "archiveSizeBytes": "172839945",
      "creationTimestamp": "2015-04-09T10:00:07.662-07:00",
      "deprecated": {
        "replacement": "https://www.googleapis.com/compute/v1/projects/coreos-cloud/global/images/coreos-alpha-653-0-0-v20150416",
        "state": "DEPRECATED"
      },
      "description": "CoreOS alpha 647.0.0",
      "diskSizeGb": "9",
      "id": "7869937409394937592",
      "kind": "compute#image",
      "name": "coreos-alpha-647-0-0-v20150409",
      "rawDisk": {
        "containerType": "TAR",
        "source": ""
      },
      "selfLink": "https://www.googleapis.com/compute/v1/projects/coreos-cloud/global/images/coreos-alpha-647-0-0-v20150409",
      "sourceType": "RAW",
      "status": "READY"
    },
    {
      "archiveSizeBytes": "175212428",
      "creationTimestamp": "2015-04-16T10:04:46.531-07:00",
      "deprecated": {
        "replacement": "https://www.googleapis.com/compute/v1/projects/coreos-cloud/global/images/coreos-alpha-660-0-0-v20150423",
        "state": "DEPRECATED"
      },
      "description": "CoreOS alpha 653.0.0",
      "diskSizeGb": "9",
      "id": "863170806862206273",
      "kind": "compute#image",
      "name": "coreos-alpha-653-0-0-v20150416",
      "rawDisk": {
        "containerType": "TAR",
        "source": ""
      },
      "selfLink": "https://www.googleapis.com/compute/v1/projects/coreos-cloud/global/images/coreos-alpha-653-0-0-v20150416",
      "sourceType": "RAW",
      "status": "READY"
    },
    {
      "archiveSizeBytes": "175598994",
      "creationTimestamp": "2015-04-23T10:07:20.193-07:00",
      "deprecated": {
        "replacement": "https://www.googleapis.com/compute/v1/projects/coreos-cloud/global/images/coreos-alpha-668-2-0-v20150430",
        "state": "DEPRECATED"
      },
      "description": "CoreOS alpha 660.0.0",
      "diskSizeGb": "9",
      "id": "7444464299647735847",
      "kind": "compute#image",
      "name": "coreos-alpha-660-0-0-v20150423",
      "rawDisk": {
        "containerType": "TAR",
        "source": ""
      },
      "selfLink": "https://www.googleapis.com/compute/v1/projects/coreos-cloud/global/images/coreos-alpha-660-0-0-v20150423",
      "sourceType": "RAW",
      "status": "READY"
    },
    {
      "archiveSizeBytes": "233514667",
      "creationTimestamp": "2015-04-30T10:03:01.695-07:00",
      "deprecated": {
        "replacement": "https://www.googleapis.com/compute/v1/projects/coreos-cloud/global/images/coreos-alpha-675-0-0-v20150507",
        "state": "DEPRECATED"
      },
      "description": "CoreOS alpha 668.2.0",
      "diskSizeGb": "9",
      "id": "4919970127512854186",
      "kind": "compute#image",
      "name": "coreos-alpha-668-2-0-v20150430",
      "rawDisk": {
        "containerType": "TAR",
        "source": ""
      },
      "selfLink": "https://www.googleapis.com/compute/v1/projects/coreos-cloud/global/images/coreos-alpha-668-2-0-v20150430",
      "sourceType": "RAW",
      "status": "READY"
    },
    {
      "archiveSizeBytes": "229581417",
      "creationTimestamp": "2015-05-07T14:45:58.517-07:00",
      "deprecated": {
        "replacement": "https://www.googleapis.com/compute/v1/projects/coreos-cloud/global/images/coreos-alpha-681-0-0-v20150514",
        "state": "DEPRECATED"
      },
      "description": "CoreOS alpha 675.0.0",
      "diskSizeGb": "9",
      "id": "3534712371323233273",
      "kind": "compute#image",
      "name": "coreos-alpha-675-0-0-v20150507",
      "rawDisk": {
        "containerType": "TAR",
        "source": ""
      },
      "selfLink": "https://www.googleapis.com/compute/v1/projects/coreos-cloud/global/images/coreos-alpha-675-0-0-v20150507",
      "sourceType": "RAW",
      "status": "READY"
    },
    {
      "archiveSizeBytes": "233038536",
      "creationTimestamp": "2015-05-14T10:00:16.544-07:00",
      "deprecated": {
        "replacement": "https://www.googleapis.com/compute/v1/projects/coreos-cloud/global/images/coreos-alpha-695-0-0-v20150528",
        "state": "DEPRECATED"
      },
      "description": "CoreOS alpha 681.0.0",
      "diskSizeGb": "9",
      "id": "8049585553407568463",
      "kind": "compute#image",
      "name": "coreos-alpha-681-0-0-v20150514",
      "rawDisk": {
        "containerType": "TAR",
        "source": ""
      },
      "selfLink": "https://www.googleapis.com/compute/v1/projects/coreos-cloud/global/images/coreos-alpha-681-0-0-v20150514",
      "sourceType": "RAW",
      "status": "READY"
    },
    {
      "archiveSizeBytes": "232050801",
      "creationTimestamp": "2015-05-28T09:59:07.994-07:00",
      "deprecated": {
        "replacement": "https://www.googleapis.com/compute/v1/projects/coreos-cloud/global/images/coreos-alpha-709-0-0-v20150611",
        "state": "DEPRECATED"
      },
      "description": "CoreOS alpha 695.0.0",
      "diskSizeGb": "9",
      "id": "8109489107254310836",
      "kind": "compute#image",
      "name": "coreos-alpha-695-0-0-v20150528",
      "rawDisk": {
        "containerType": "TAR",
        "source": ""
      },
      "selfLink": "https://www.googleapis.com/compute/v1/projects/coreos-cloud/global/images/coreos-alpha-695-0-0-v20150528",
      "sourceType": "RAW",
      "status": "READY"
    },
    {
      "archiveSizeBytes": "233681371",
      "creationTimestamp": "2015-06-11T10:12:00.527-07:00",
      "deprecated": {
        "replacement": "https://www.googleapis.com/compute/v1/projects/coreos-cloud/global/images/coreos-alpha-717-0-0-v20150618",
        "state": "DEPRECATED"
      },
      "description": "CoreOS, CoreOS alpha, 709.0.0, amd64-usr published on 2015-06-11",
      "diskSizeGb": "9",
      "id": "6909545325733904271",
      "kind": "compute#image",
      "name": "coreos-alpha-709-0-0-v20150611",
      "rawDisk": {
        "containerType": "TAR",
        "source": ""
      },
      "selfLink": "https://www.googleapis.com/compute/v1/projects/coreos-cloud/global/images/coreos-alpha-709-0-0-v20150611",
      "sourceType": "RAW",
      "status": "READY"
    },
    {
      "archiveSizeBytes": "236119763",
      "creationTimestamp": "2015-06-18T14:40:56.385-07:00",
      "deprecated": {
        "replacement": "https://www.googleapis.com/compute/v1/projects/coreos-cloud/global/images/coreos-alpha-723-0-0-v20150625",
        "state": "DEPRECATED"
      },
      "description": "CoreOS, CoreOS alpha, 717.0.0, amd64-usr published on 2015-06-18",
      "diskSizeGb": "9",
      "id": "5205462298791937031",
      "kind": "compute#image",
      "name": "coreos-alpha-717-0-0-v20150618",
      "rawDisk": {
        "containerType": "TAR",
        "source": ""
      },
      "selfLink": "https://www.googleapis.com/compute/v1/projects/coreos-cloud/global/images/coreos-alpha-717-0-0-v20150618",
      "sourceType": "RAW",
      "status": "READY"
    },
    {
      "archiveSizeBytes": "236034267",
      "creationTimestamp": "2015-06-25T09:59:45.535-07:00",
      "deprecated": {
        "replacement": "https://www.googleapis.com/compute/v1/projects/coreos-cloud/global/images/coreos-alpha-723-1-0-v20150627",
        "state": "DEPRECATED"
      },
      "description": "CoreOS, CoreOS alpha, 723.0.0, amd64-usr published on 2015-06-25",
      "diskSizeGb": "9",
      "id": "2472405919210769774",
      "kind": "compute#image",
      "name": "coreos-alpha-723-0-0-v20150625",
      "rawDisk": {
        "containerType": "TAR",
        "source": ""
      },
      "selfLink": "https://www.googleapis.com/compute/v1/projects/coreos-cloud/global/images/coreos-alpha-723-0-0-v20150625",
      "sourceType": "RAW",
      "status": "READY"
    },
    {
      "archiveSizeBytes": "236715376",
      "creationTimestamp": "2015-06-26T20:13:14.547-07:00",
      "deprecated": {
        "replacement": "https://www.googleapis.com/compute/v1/projects/coreos-cloud/global/images/coreos-alpha-735-0-0-v20150707",
        "state": "DEPRECATED"
      },
      "description": "CoreOS, CoreOS alpha, 723.1.0, amd64-usr published on 2015-06-27",
      "diskSizeGb": "9",
      "id": "6109843855683856933",
      "kind": "compute#image",
      "name": "coreos-alpha-723-1-0-v20150627",
      "rawDisk": {
        "containerType": "TAR",
        "source": ""
      },
      "selfLink": "https://www.googleapis.com/compute/v1/projects/coreos-cloud/global/images/coreos-alpha-723-1-0-v20150627",
      "sourceType": "RAW",
      "status": "READY"
    },
    {
      "archiveSizeBytes": "211091809",
      "creationTimestamp": "2015-07-07T12:41:35.244-07:00",
      "deprecated": {
        "replacement": "https://www.googleapis.com/compute/v1/projects/coreos-cloud/global/images/coreos-alpha-738-1-0-v20150709",
        "state": "DEPRECATED"
      },
      "description": "CoreOS, CoreOS alpha, 735.0.0, amd64-usr published on 2015-07-07",
      "diskSizeGb": "9",
      "id": "6117246128740210048",
      "kind": "compute#image",
      "name": "coreos-alpha-735-0-0-v20150707",
      "rawDisk": {
        "containerType": "TAR",
        "source": ""
      },
      "selfLink": "https://www.googleapis.com/compute/v1/projects/coreos-cloud/global/images/coreos-alpha-735-0-0-v20150707",
      "sourceType": "RAW",
      "status": "READY"
    },
    {
      "archiveSizeBytes": "212116328",
      "creationTimestamp": "2015-07-09T14:20:22.324-07:00",
      "deprecated": {
        "replacement": "https://www.googleapis.com/compute/v1/projects/coreos-cloud/global/images/coreos-alpha-745-1-0-v20150716",
        "state": "DEPRECATED"
      },
      "description": "CoreOS, CoreOS alpha, 738.1.0, amd64-usr published on 2015-07-09",
      "diskSizeGb": "9",
      "id": "3540735818131004281",
      "kind": "compute#image",
      "name": "coreos-alpha-738-1-0-v20150709",
      "rawDisk": {
        "containerType": "TAR",
        "source": ""
      },
      "selfLink": "https://www.googleapis.com/compute/v1/projects/coreos-cloud/global/images/coreos-alpha-738-1-0-v20150709",
      "sourceType": "RAW",
      "status": "READY"
    },
    {
      "archiveSizeBytes": "212375907",
      "creationTimestamp": "2015-07-16T16:48:37.738-07:00",
      "deprecated": {
        "replacement": "https://www.googleapis.com/compute/v1/projects/coreos-cloud/global/images/coreos-alpha-752-1-0-v20150723",
        "state": "DEPRECATED"
      },
      "description": "CoreOS, CoreOS alpha, 745.1.0, amd64-usr published on 2015-07-16",
      "diskSizeGb": "9",
      "id": "8066708509963975738",
      "kind": "compute#image",
      "name": "coreos-alpha-745-1-0-v20150716",
      "rawDisk": {
        "containerType": "TAR",
        "source": ""
      },
      "selfLink": "https://www.googleapis.com/compute/v1/projects/coreos-cloud/global/images/coreos-alpha-745-1-0-v20150716",
      "sourceType": "RAW",
      "status": "READY"
    },
    {
      "archiveSizeBytes": "216918366",
      "creationTimestamp": "2015-07-23T16:09:16.424-07:00",
      "deprecated": {
        "replacement": "https://www.googleapis.com/compute/v1/projects/coreos-cloud/global/images/coreos-alpha-758-1-0-v20150730",
        "state": "DEPRECATED"
      },
      "description": "CoreOS, CoreOS alpha, 752.1.0, amd64-usr published on 2015-07-23",
      "diskSizeGb": "9",
      "id": "7298761734601100019",
      "kind": "compute#image",
      "name": "coreos-alpha-752-1-0-v20150723",
      "rawDisk": {
        "containerType": "TAR",
        "source": ""
      },
      "selfLink": "https://www.googleapis.com/compute/v1/projects/coreos-cloud/global/images/coreos-alpha-752-1-0-v20150723",
      "sourceType": "RAW",
      "status": "READY"
    },
    {
      "archiveSizeBytes": "216961370",
      "creationTimestamp": "2015-07-30T10:01:54.120-07:00",
      "deprecated": {
        "replacement": "https://www.googleapis.com/compute/v1/projects/coreos-cloud/global/images/coreos-alpha-766-0-0-v20150807",
        "state": "DEPRECATED"
      },
      "description": "CoreOS, CoreOS alpha, 758.1.0, amd64-usr published on 2015-07-30",
      "diskSizeGb": "9",
      "id": "3970980116851844717",
      "kind": "compute#image",
      "name": "coreos-alpha-758-1-0-v20150730",
      "rawDisk": {
        "containerType": "TAR",
        "source": ""
      },
      "selfLink": "https://www.googleapis.com/compute/v1/projects/coreos-cloud/global/images/coreos-alpha-758-1-0-v20150730",
      "sourceType": "RAW",
      "status": "READY"
    },
    {
      "archiveSizeBytes": "235632844",
      "creationTimestamp": "2015-08-07T09:58:39.792-07:00",
      "deprecated": {
        "replacement": "https://www.googleapis.com/compute/v1/projects/coreos-cloud/global/images/coreos-alpha-773-1-0-v20150813",
        "state": "DEPRECATED"
      },
      "description": "CoreOS, CoreOS alpha, 766.0.0, amd64-usr published on 2015-08-07",
      "diskSizeGb": "9",
      "id": "344913896574377296",
      "kind": "compute#image",
      "name": "coreos-alpha-766-0-0-v20150807",
      "rawDisk": {
        "containerType": "TAR",
        "source": ""
      },
      "selfLink": "https://www.googleapis.com/compute/v1/projects/coreos-cloud/global/images/coreos-alpha-766-0-0-v20150807",
      "sourceType": "RAW",
      "status": "READY"
    },
    {
      "archiveSizeBytes": "242080477",
      "creationTimestamp": "2015-08-13T10:04:27.944-07:00",
      "deprecated": {
        "replacement": "https://www.googleapis.com/compute/v1/projects/coreos-cloud/global/images/coreos-alpha-774-0-0-v20150814",
        "state": "DEPRECATED"
      },
      "description": "CoreOS, CoreOS alpha, 773.1.0, amd64-usr published on 2015-08-13",
      "diskSizeGb": "9",
      "id": "7292408168009789684",
      "kind": "compute#image",
      "name": "coreos-alpha-773-1-0-v20150813",
      "rawDisk": {
        "containerType": "TAR",
        "source": ""
      },
      "selfLink": "https://www.googleapis.com/compute/v1/projects/coreos-cloud/global/images/coreos-alpha-773-1-0-v20150813",
      "sourceType": "RAW",
      "status": "READY"
    },
    {
      "archiveSizeBytes": "242186969",
      "creationTimestamp": "2015-08-14T14:54:31.225-07:00",
      "deprecated": {
        "replacement": "https://www.googleapis.com/compute/v1/projects/coreos-cloud/global/images/coreos-alpha-779-0-0-v20150820",
        "state": "DEPRECATED"
      },
      "description": "CoreOS, CoreOS alpha, 774.0.0, amd64-usr published on 2015-08-14",
      "diskSizeGb": "9",
      "id": "741296883588390264",
      "kind": "compute#image",
      "name": "coreos-alpha-774-0-0-v20150814",
      "rawDisk": {
        "containerType": "TAR",
        "source": ""
      },
      "selfLink": "https://www.googleapis.com/compute/v1/projects/coreos-cloud/global/images/coreos-alpha-774-0-0-v20150814",
      "sourceType": "RAW",
      "status": "READY"
    },
    {
      "archiveSizeBytes": "252136696",
      "creationTimestamp": "2015-08-20T10:01:15.729-07:00",
      "deprecated": {
        "replacement": "https://www.googleapis.com/compute/v1/projects/coreos-cloud/global/images/coreos-alpha-789-0-0-v20150829",
        "state": "DEPRECATED"
      },
      "description": "CoreOS, CoreOS alpha, 779.0.0, amd64-usr published on 2015-08-20",
      "diskSizeGb": "9",
      "id": "4002457300810578228",
      "kind": "compute#image",
      "name": "coreos-alpha-779-0-0-v20150820",
      "rawDisk": {
        "containerType": "TAR",
        "source": ""
      },
      "selfLink": "https://www.googleapis.com/compute/v1/projects/coreos-cloud/global/images/coreos-alpha-779-0-0-v20150820",
      "sourceType": "RAW",
      "status": "READY"
    },
    {
      "archiveSizeBytes": "252603124",
      "creationTimestamp": "2015-08-28T14:34:01.988-07:00",
      "deprecated": {
        "replacement": "https://www.googleapis.com/compute/v1/projects/coreos-cloud/global/images/coreos-alpha-789-0-0-v20150829",
        "state": "DEPRECATED"
      },
      "description": "CoreOS, CoreOS alpha, 788.0.0, amd64-usr published on 2015-08-28",
      "diskSizeGb": "9",
      "id": "6419432348287069478",
      "kind": "compute#image",
      "name": "coreos-alpha-788-0-0-v20150828",
      "rawDisk": {
        "containerType": "TAR",
        "source": ""
      },
      "selfLink": "https://www.googleapis.com/compute/v1/projects/coreos-cloud/global/images/coreos-alpha-788-0-0-v20150828",
      "sourceType": "RAW",
      "status": "READY"
    },
    {
      "archiveSizeBytes": "252496626",
      "creationTimestamp": "2015-08-29T11:25:19.124-07:00",
      "deprecated": {
        "replacement": "https://www.googleapis.com/compute/v1/projects/coreos-cloud/global/images/coreos-alpha-794-0-0-v20150903",
        "state": "DEPRECATED"
      },
      "description": "CoreOS, CoreOS alpha, 789.0.0, amd64-usr published on 2015-08-29",
      "diskSizeGb": "9",
      "id": "3222399933144123360",
      "kind": "compute#image",
      "name": "coreos-alpha-789-0-0-v20150829",
      "rawDisk": {
        "containerType": "TAR",
        "source": ""
      },
      "selfLink": "https://www.googleapis.com/compute/v1/projects/coreos-cloud/global/images/coreos-alpha-789-0-0-v20150829",
      "sourceType": "RAW",
      "status": "READY"
    },
    {
      "archiveSizeBytes": "252607218",
      "creationTimestamp": "2015-09-03T13:06:00.700-07:00",
      "deprecated": {
        "replacement": "https://www.googleapis.com/compute/v1/projects/coreos-cloud/global/images/coreos-alpha-801-0-0-v20150910",
        "state": "DEPRECATED"
      },
      "description": "CoreOS, CoreOS alpha, 794.0.0, amd64-usr published on 2015-09-03",
      "diskSizeGb": "9",
      "id": "3739758142997993159",
      "kind": "compute#image",
      "name": "coreos-alpha-794-0-0-v20150903",
      "rawDisk": {
        "containerType": "TAR",
        "source": ""
      },
      "selfLink": "https://www.googleapis.com/compute/v1/projects/coreos-cloud/global/images/coreos-alpha-794-0-0-v20150903",
      "sourceType": "RAW",
      "status": "READY"
    },
    {
      "archiveSizeBytes": "254848055",
      "creationTimestamp": "2015-09-10T10:05:15.113-07:00",
      "deprecated": {
        "replacement": "https://www.googleapis.com/compute/v1/projects/coreos-cloud/global/images/coreos-alpha-808-0-0-v20150917",
        "state": "DEPRECATED"
      },
      "description": "CoreOS, CoreOS alpha, 801.0.0, amd64-usr published on 2015-09-10",
      "diskSizeGb": "9",
      "id": "1864686218837231268",
      "kind": "compute#image",
      "name": "coreos-alpha-801-0-0-v20150910",
      "rawDisk": {
        "containerType": "TAR",
        "source": ""
      },
      "selfLink": "https://www.googleapis.com/compute/v1/projects/coreos-cloud/global/images/coreos-alpha-801-0-0-v20150910",
      "sourceType": "RAW",
      "status": "READY"
    },
    {
      "archiveSizeBytes": "263809866",
      "creationTimestamp": "2015-09-17T09:47:56.532-07:00",
      "description": "CoreOS, CoreOS alpha, 808.0.0, amd64-usr published on 2015-09-17",
      "diskSizeGb": "9",
      "id": "1177559719982092371",
      "kind": "compute#image",
      "name": "coreos-alpha-808-0-0-v20150917",
      "rawDisk": {
        "containerType": "TAR",
        "source": ""
      },
      "selfLink": "https://www.googleapis.com/compute/v1/projects/coreos-cloud/global/images/coreos-alpha-808-0-0-v20150917",
      "sourceType": "RAW",
      "status": "READY"
    },
    {
      "archiveSizeBytes": "217657127",
      "creationTimestamp": "2014-11-24T14:02:13.599-08:00",
      "deprecated": {
        "replacement": "https://www.googleapis.com/compute/v1/projects/coreos-cloud/global/images/coreos-beta-494-5-0-v20141211",
        "state": "DEPRECATED"
      },
      "description": "CoreOS beta 494.1.0",
      "diskSizeGb": "9",
      "id": "2468958217438571789",
      "kind": "compute#image",
      "name": "coreos-beta-494-1-0-v20141124",
      "rawDisk": {
        "containerType": "TAR",
        "source": ""
      },
      "selfLink": "https://www.googleapis.com/compute/v1/projects/coreos-cloud/global/images/coreos-beta-494-1-0-v20141124",
      "sourceType": "RAW",
      "status": "READY"
    },
    {
      "archiveSizeBytes": "217129760",
      "creationTimestamp": "2014-12-04T15:52:43.520-08:00",
      "deprecated": {
        "replacement": "https://www.googleapis.com/compute/v1/projects/coreos-cloud/global/images/coreos-beta-494-5-0-v20141211",
        "state": "DEPRECATED"
      },
      "description": "CoreOS beta 494.4.0",
      "diskSizeGb": "9",
      "id": "3901953085416533827",
      "kind": "compute#image",
      "name": "coreos-beta-494-4-0-v20141204",
      "rawDisk": {
        "containerType": "TAR",
        "source": ""
      },
      "selfLink": "https://www.googleapis.com/compute/v1/projects/coreos-cloud/global/images/coreos-beta-494-4-0-v20141204",
      "sourceType": "RAW",
      "status": "READY"
    },
    {
      "archiveSizeBytes": "217091382",
      "creationTimestamp": "2014-12-11T13:07:37.057-08:00",
      "deprecated": {
        "replacement": "https://www.googleapis.com/compute/v1/projects/coreos-cloud/global/images/coreos-beta-522-2-0-v20141218",
        "state": "DEPRECATED"
      },
      "description": "CoreOS beta 494.5.0",
      "diskSizeGb": "9",
      "id": "11721688361939601432",
      "kind": "compute#image",
      "name": "coreos-beta-494-5-0-v20141211",
      "rawDisk": {
        "containerType": "TAR",
        "source": ""
      },
      "selfLink": "https://www.googleapis.com/compute/v1/projects/coreos-cloud/global/images/coreos-beta-494-5-0-v20141211",
      "sourceType": "RAW",
      "status": "READY"
    },
    {
      "archiveSizeBytes": "220704959",
      "creationTimestamp": "2014-12-18T13:29:11.177-08:00",
      "deprecated": {
        "replacement": "https://www.googleapis.com/compute/v1/projects/coreos-cloud/global/images/coreos-beta-522-3-0-v20141226",
        "state": "DEPRECATED"
      },
      "description": "CoreOS beta 522.2.0",
      "diskSizeGb": "9",
      "id": "18164147672853893958",
      "kind": "compute#image",
      "name": "coreos-beta-522-2-0-v20141218",
      "rawDisk": {
        "containerType": "TAR",
        "source": ""
      },
      "selfLink": "https://www.googleapis.com/compute/v1/projects/coreos-cloud/global/images/coreos-beta-522-2-0-v20141218",
      "sourceType": "RAW",
      "status": "READY"
    },
    {
      "archiveSizeBytes": "220932284",
      "creationTimestamp": "2014-12-26T15:04:01.237-08:00",
      "deprecated": {
        "replacement": "https://www.googleapis.com/compute/v1/projects/coreos-cloud/global/images/coreos-beta-522-4-0-v20150106",
        "state": "DEPRECATED"
      },
      "description": "CoreOS beta 522.3.0",
      "diskSizeGb": "9",
      "id": "14171939663085407486",
      "kind": "compute#image",
      "name": "coreos-beta-522-3-0-v20141226",
      "rawDisk": {
        "containerType": "TAR",
        "source": ""
      },
      "selfLink": "https://www.googleapis.com/compute/v1/projects/coreos-cloud/global/images/coreos-beta-522-3-0-v20141226",
      "sourceType": "RAW",
      "status": "READY"
    },
    {
      "archiveSizeBytes": "216643278",
      "creationTimestamp": "2015-01-06T13:19:28.392-08:00",
      "deprecated": {
        "replacement": "https://www.googleapis.com/compute/v1/projects/coreos-cloud/global/images/coreos-beta-522-5-0-v20150112",
        "state": "DEPRECATED"
      },
      "description": "CoreOS beta 522.4.0",
      "diskSizeGb": "9",
      "id": "6344812500476454386",
      "kind": "compute#image",
      "name": "coreos-beta-522-4-0-v20150106",
      "rawDisk": {
        "containerType": "TAR",
        "source": ""
      },
      "selfLink": "https://www.googleapis.com/compute/v1/projects/coreos-cloud/global/images/coreos-beta-522-4-0-v20150106",
      "sourceType": "RAW",
      "status": "READY"
    },
    {
      "archiveSizeBytes": "220977972",
      "creationTimestamp": "2015-01-12T14:02:17.665-08:00",
      "deprecated": {
        "replacement": "https://www.googleapis.com/compute/v1/projects/coreos-cloud/global/images/coreos-beta-557-0-0-v20150114",
        "state": "DEPRECATED"
      },
      "description": "CoreOS beta 522.5.0",
      "diskSizeGb": "9",
      "id": "11628620635058455146",
      "kind": "compute#image",
      "name": "coreos-beta-522-5-0-v20150112",
      "rawDisk": {
        "containerType": "TAR",
        "source": ""
      },
      "selfLink": "https://www.googleapis.com/compute/v1/projects/coreos-cloud/global/images/coreos-beta-522-5-0-v20150112",
      "sourceType": "RAW",
      "status": "READY"
    },
    {
      "archiveSizeBytes": "152400994",
      "creationTimestamp": "2015-01-14T12:41:01.118-08:00",
      "deprecated": {
        "replacement": "https://www.googleapis.com/compute/v1/projects/coreos-cloud/global/images/coreos-beta-557-1-0-v20150128",
        "state": "DEPRECATED"
      },
      "description": "CoreOS beta 557.0.0",
      "diskSizeGb": "9",
      "id": "3494276552336113856",
      "kind": "compute#image",
      "name": "coreos-beta-557-0-0-v20150114",
      "rawDisk": {
        "containerType": "TAR",
        "source": ""
      },
      "selfLink": "https://www.googleapis.com/compute/v1/projects/coreos-cloud/global/images/coreos-beta-557-0-0-v20150114",
      "sourceType": "RAW",
      "status": "READY"
    },
    {
      "archiveSizeBytes": "153978621",
      "creationTimestamp": "2015-01-27T21:33:41.761-08:00",
      "deprecated": {
        "replacement": "https://www.googleapis.com/compute/v1/projects/coreos-cloud/global/images/coreos-beta-557-2-0-v20150204",
        "state": "DEPRECATED"
      },
      "description": "CoreOS beta 557.1.0",
      "diskSizeGb": "9",
      "id": "5819770416612228147",
      "kind": "compute#image",
      "name": "coreos-beta-557-1-0-v20150128",
      "rawDisk": {
        "containerType": "TAR",
        "source": ""
      },
      "selfLink": "https://www.googleapis.com/compute/v1/projects/coreos-cloud/global/images/coreos-beta-557-1-0-v20150128",
      "sourceType": "RAW",
      "status": "READY"
    },
    {
      "archiveSizeBytes": "153905919",
      "creationTimestamp": "2015-02-04T10:05:49.631-08:00",
      "deprecated": {
        "replacement": "https://www.googleapis.com/compute/v1/projects/coreos-cloud/global/images/coreos-beta-584-0-0-v20150218",
        "state": "DEPRECATED"
      },
      "description": "CoreOS beta 557.2.0",
      "diskSizeGb": "9",
      "id": "3998523832253343846",
      "kind": "compute#image",
      "name": "coreos-beta-557-2-0-v20150204",
      "rawDisk": {
        "containerType": "TAR",
        "source": ""
      },
      "selfLink": "https://www.googleapis.com/compute/v1/projects/coreos-cloud/global/images/coreos-beta-557-2-0-v20150204",
      "sourceType": "RAW",
      "status": "READY"
    },
    {
      "archiveSizeBytes": "153703976",
      "creationTimestamp": "2015-02-18T10:04:25.855-08:00",
      "deprecated": {
        "replacement": "https://www.googleapis.com/compute/v1/projects/coreos-cloud/global/images/coreos-beta-607-0-0-v20150304",
        "state": "DEPRECATED"
      },
      "description": "CoreOS beta 584.0.0",
      "diskSizeGb": "9",
      "id": "6117247468176812734",
      "kind": "compute#image",
      "name": "coreos-beta-584-0-0-v20150218",
      "rawDisk": {
        "containerType": "TAR",
        "source": ""
      },
      "selfLink": "https://www.googleapis.com/compute/v1/projects/coreos-cloud/global/images/coreos-beta-584-0-0-v20150218",
      "sourceType": "RAW",
      "status": "READY"
    },
    {
      "archiveSizeBytes": "150624916",
      "creationTimestamp": "2015-03-04T11:27:35.024-08:00",
      "deprecated": {
        "replacement": "https://www.googleapis.com/compute/v1/projects/coreos-cloud/global/images/coreos-beta-612-1-0-v20150318",
        "state": "DEPRECATED"
      },
      "description": "CoreOS beta 607.0.0",
      "diskSizeGb": "9",
      "id": "5320795897391145544",
      "kind": "compute#image",
      "name": "coreos-beta-607-0-0-v20150304",
      "rawDisk": {
        "containerType": "TAR",
        "source": ""
      },
      "selfLink": "https://www.googleapis.com/compute/v1/projects/coreos-cloud/global/images/coreos-beta-607-0-0-v20150304",
      "sourceType": "RAW",
      "status": "READY"
    },
    {
      "archiveSizeBytes": "150548720",
      "creationTimestamp": "2015-03-18T10:02:37.945-07:00",
      "deprecated": {
        "replacement": "https://www.googleapis.com/compute/v1/projects/coreos-cloud/global/images/coreos-beta-633-1-0-v20150401",
        "state": "DEPRECATED"
      },
      "description": "CoreOS beta 612.1.0",
      "diskSizeGb": "9",
      "id": "4741241179518275906",
      "kind": "compute#image",
      "name": "coreos-beta-612-1-0-v20150318",
      "rawDisk": {
        "containerType": "TAR",
        "source": ""
      },
      "selfLink": "https://www.googleapis.com/compute/v1/projects/coreos-cloud/global/images/coreos-beta-612-1-0-v20150318",
      "sourceType": "RAW",
      "status": "READY"
    },
    {
      "archiveSizeBytes": "172151299",
      "creationTimestamp": "2015-04-01T10:05:00.875-07:00",
      "deprecated": {
        "replacement": "https://www.googleapis.com/compute/v1/projects/coreos-cloud/global/images/coreos-beta-647-0-0-v20150415",
        "state": "DEPRECATED"
      },
      "description": "CoreOS beta 633.1.0",
      "diskSizeGb": "9",
      "id": "8810200660679171027",
      "kind": "compute#image",
      "name": "coreos-beta-633-1-0-v20150401",
      "rawDisk": {
        "containerType": "TAR",
        "source": ""
      },
      "selfLink": "https://www.googleapis.com/compute/v1/projects/coreos-cloud/global/images/coreos-beta-633-1-0-v20150401",
      "sourceType": "RAW",
      "status": "READY"
    },
    {
      "archiveSizeBytes": "172851087",
      "creationTimestamp": "2015-04-15T10:03:16.385-07:00",
      "deprecated": {
        "replacement": "https://www.googleapis.com/compute/v1/projects/coreos-cloud/global/images/coreos-beta-668-3-0-v20150513",
        "state": "DEPRECATED"
      },
      "description": "CoreOS beta 647.0.0",
      "diskSizeGb": "9",
      "id": "6768717832038590267",
      "kind": "compute#image",
      "name": "coreos-beta-647-0-0-v20150415",
      "rawDisk": {
        "containerType": "TAR",
        "source": ""
      },
      "selfLink": "https://www.googleapis.com/compute/v1/projects/coreos-cloud/global/images/coreos-beta-647-0-0-v20150415",
      "sourceType": "RAW",
      "status": "READY"
    },
    {
      "archiveSizeBytes": "233402813",
      "creationTimestamp": "2015-05-13T10:02:08.981-07:00",
      "deprecated": {
        "replacement": "https://www.googleapis.com/compute/v1/projects/coreos-cloud/global/images/coreos-beta-681-0-0-v20150527",
        "state": "DEPRECATED"
      },
      "description": "CoreOS beta 668.3.0",
      "diskSizeGb": "9",
      "id": "909752587643665791",
      "kind": "compute#image",
      "name": "coreos-beta-668-3-0-v20150513",
      "rawDisk": {
        "containerType": "TAR",
        "source": ""
      },
      "selfLink": "https://www.googleapis.com/compute/v1/projects/coreos-cloud/global/images/coreos-beta-668-3-0-v20150513",
      "sourceType": "RAW",
      "status": "READY"
    },
    {
      "archiveSizeBytes": "233038784",
      "creationTimestamp": "2015-05-27T10:01:15.431-07:00",
      "deprecated": {
        "replacement": "https://www.googleapis.com/compute/v1/projects/coreos-cloud/global/images/coreos-beta-695-0-0-v20150610",
        "state": "DEPRECATED"
      },
      "description": "CoreOS beta 681.0.0",
      "diskSizeGb": "9",
      "id": "6479571708734359220",
      "kind": "compute#image",
      "name": "coreos-beta-681-0-0-v20150527",
      "rawDisk": {
        "containerType": "TAR",
        "source": ""
      },
      "selfLink": "https://www.googleapis.com/compute/v1/projects/coreos-cloud/global/images/coreos-beta-681-0-0-v20150527",
      "sourceType": "RAW",
      "status": "READY"
    },
    {
      "archiveSizeBytes": "232050853",
      "creationTimestamp": "2015-06-10T10:00:16.186-07:00",
      "deprecated": {
        "replacement": "https://www.googleapis.com/compute/v1/projects/coreos-cloud/global/images/coreos-beta-695-2-0-v20150615",
        "state": "DEPRECATED"
      },
      "description": "CoreOS beta 695.0.0",
      "diskSizeGb": "9",
      "id": "7723679522269549519",
      "kind": "compute#image",
      "name": "coreos-beta-695-0-0-v20150610",
      "rawDisk": {
        "containerType": "TAR",
        "source": ""
      },
      "selfLink": "https://www.googleapis.com/compute/v1/projects/coreos-cloud/global/images/coreos-beta-695-0-0-v20150610",
      "sourceType": "RAW",
      "status": "READY"
    },
    {
      "archiveSizeBytes": "233022405",
      "creationTimestamp": "2015-06-15T10:13:02.647-07:00",
      "deprecated": {
        "replacement": "https://www.googleapis.com/compute/v1/projects/coreos-cloud/global/images/coreos-beta-717-1-0-v20150624",
        "state": "DEPRECATED"
      },
      "description": "CoreOS beta 695.2.0",
      "diskSizeGb": "9",
      "id": "1045460750896904561",
      "kind": "compute#image",
      "name": "coreos-beta-695-2-0-v20150615",
      "rawDisk": {
        "containerType": "TAR",
        "source": ""
      },
      "selfLink": "https://www.googleapis.com/compute/v1/projects/coreos-cloud/global/images/coreos-beta-695-2-0-v20150615",
      "sourceType": "RAW",
      "status": "READY"
    },
    {
      "archiveSizeBytes": "236438996",
      "creationTimestamp": "2015-06-24T09:59:34.960-07:00",
      "deprecated": {
        "replacement": "https://www.googleapis.com/compute/v1/projects/coreos-cloud/global/images/coreos-beta-723-1-0-v20150708",
        "state": "DEPRECATED"
      },
      "description": "CoreOS, CoreOS beta, 717.1.0, amd64-usr published on 2015-06-24",
      "diskSizeGb": "9",
      "id": "6280310016740646681",
      "kind": "compute#image",
      "name": "coreos-beta-717-1-0-v20150624",
      "rawDisk": {
        "containerType": "TAR",
        "source": ""
      },
      "selfLink": "https://www.googleapis.com/compute/v1/projects/coreos-cloud/global/images/coreos-beta-717-1-0-v20150624",
      "sourceType": "RAW",
      "status": "READY"
    },
    {
      "archiveSizeBytes": "236717416",
      "creationTimestamp": "2015-07-08T10:04:07.874-07:00",
      "deprecated": {
        "replacement": "https://www.googleapis.com/compute/v1/projects/coreos-cloud/global/images/coreos-beta-723-3-0-v20150710",
        "state": "DEPRECATED"
      },
      "description": "CoreOS, CoreOS beta, 723.1.0, amd64-usr published on 2015-07-08",
      "diskSizeGb": "9",
      "id": "4072202389962155752",
      "kind": "compute#image",
      "name": "coreos-beta-723-1-0-v20150708",
      "rawDisk": {
        "containerType": "TAR",
        "source": ""
      },
      "selfLink": "https://www.googleapis.com/compute/v1/projects/coreos-cloud/global/images/coreos-beta-723-1-0-v20150708",
      "sourceType": "RAW",
      "status": "READY"
    },
    {
      "archiveSizeBytes": "236493412",
      "creationTimestamp": "2015-07-09T19:39:19.461-07:00",
      "deprecated": {
        "replacement": "https://www.googleapis.com/compute/v1/projects/coreos-cloud/global/images/coreos-beta-766-1-0-v20150820",
        "state": "DEPRECATED"
      },
      "description": "CoreOS, CoreOS beta, 723.3.0, amd64-usr published on 2015-07-10",
      "diskSizeGb": "9",
      "id": "7707814918089772728",
      "kind": "compute#image",
      "name": "coreos-beta-723-3-0-v20150710",
      "rawDisk": {
        "containerType": "TAR",
        "source": ""
      },
      "selfLink": "https://www.googleapis.com/compute/v1/projects/coreos-cloud/global/images/coreos-beta-723-3-0-v20150710",
      "sourceType": "RAW",
      "status": "READY"
    },
    {
      "archiveSizeBytes": "235656647",
      "creationTimestamp": "2015-08-19T22:18:43.359-07:00",
      "deprecated": {
        "replacement": "https://www.googleapis.com/compute/v1/projects/coreos-cloud/global/images/coreos-beta-766-3-0-v20150902",
        "state": "DEPRECATED"
      },
      "description": "CoreOS, CoreOS beta, 766.1.0, amd64-usr published on 2015-08-20",
      "diskSizeGb": "9",
      "id": "605691803843747292",
      "kind": "compute#image",
      "name": "coreos-beta-766-1-0-v20150820",
      "rawDisk": {
        "containerType": "TAR",
        "source": ""
      },
      "selfLink": "https://www.googleapis.com/compute/v1/projects/coreos-cloud/global/images/coreos-beta-766-1-0-v20150820",
      "sourceType": "RAW",
      "status": "READY"
    },
    {
      "archiveSizeBytes": "230247113",
      "creationTimestamp": "2015-09-02T12:47:30.986-07:00",
      "deprecated": {
        "replacement": "https://www.googleapis.com/compute/v1/projects/coreos-cloud/global/images/coreos-beta-766-4-0-v20150917",
        "state": "DEPRECATED"
      },
      "description": "CoreOS, CoreOS beta, 766.3.0, amd64-usr published on 2015-09-02",
      "diskSizeGb": "9",
      "id": "5205130297821818045",
      "kind": "compute#image",
      "name": "coreos-beta-766-3-0-v20150902",
      "rawDisk": {
        "containerType": "TAR",
        "source": ""
      },
      "selfLink": "https://www.googleapis.com/compute/v1/projects/coreos-cloud/global/images/coreos-beta-766-3-0-v20150902",
      "sourceType": "RAW",
      "status": "READY"
    },
    {
      "archiveSizeBytes": "230287645",
      "creationTimestamp": "2015-09-16T17:48:12.007-07:00",
      "description": "CoreOS, CoreOS beta, 766.4.0, amd64-usr published on 2015-09-17",
      "diskSizeGb": "9",
      "id": "9076177067507692323",
      "kind": "compute#image",
      "name": "coreos-beta-766-4-0-v20150917",
      "rawDisk": {
        "containerType": "TAR",
        "source": ""
      },
      "selfLink": "https://www.googleapis.com/compute/v1/projects/coreos-cloud/global/images/coreos-beta-766-4-0-v20150917",
      "sourceType": "RAW",
      "status": "READY"
    },
    {
      "archiveSizeBytes": "216979469",
      "creationTimestamp": "2014-12-03T10:58:23.402-08:00",
      "deprecated": {
        "replacement": "https://www.googleapis.com/compute/v1/projects/coreos-cloud/global/images/coreos-stable-494-4-0-v20141204",
        "state": "DEPRECATED"
      },
      "description": "CoreOS stable 494.3.0",
      "diskSizeGb": "9",
      "id": "15950760641457393522",
      "kind": "compute#image",
      "name": "coreos-stable-494-3-0-v20141203",
      "rawDisk": {
        "containerType": "TAR",
        "source": ""
      },
      "selfLink": "https://www.googleapis.com/compute/v1/projects/coreos-cloud/global/images/coreos-stable-494-3-0-v20141203",
      "sourceType": "RAW",
      "status": "READY"
    },
    {
      "archiveSizeBytes": "217085384",
      "creationTimestamp": "2014-12-04T12:34:55.496-08:00",
      "deprecated": {
        "replacement": "https://www.googleapis.com/compute/v1/projects/coreos-cloud/global/images/coreos-stable-494-5-0-v20141215",
        "state": "DEPRECATED"
      },
      "description": "CoreOS stable 494.4.0",
      "diskSizeGb": "9",
      "id": "15925813888167964156",
      "kind": "compute#image",
      "name": "coreos-stable-494-4-0-v20141204",
      "rawDisk": {
        "containerType": "TAR",
        "source": ""
      },
      "selfLink": "https://www.googleapis.com/compute/v1/projects/coreos-cloud/global/images/coreos-stable-494-4-0-v20141204",
      "sourceType": "RAW",
      "status": "READY"
    },
    {
      "archiveSizeBytes": "217069504",
      "creationTimestamp": "2014-12-15T11:57:55.509-08:00",
      "deprecated": {
        "replacement": "https://www.googleapis.com/compute/v1/projects/coreos-cloud/global/images/coreos-stable-522-4-0-v20150108",
        "state": "DEPRECATED"
      },
      "description": "CoreOS stable 494.5.0",
      "diskSizeGb": "9",
      "id": "8254035885037496682",
      "kind": "compute#image",
      "name": "coreos-stable-494-5-0-v20141215",
      "rawDisk": {
        "containerType": "TAR",
        "source": ""
      },
      "selfLink": "https://www.googleapis.com/compute/v1/projects/coreos-cloud/global/images/coreos-stable-494-5-0-v20141215",
      "sourceType": "RAW",
      "status": "READY"
    },
    {
      "archiveSizeBytes": "216599276",
      "creationTimestamp": "2015-01-08T14:29:37.247-08:00",
      "deprecated": {
        "replacement": "https://www.googleapis.com/compute/v1/projects/coreos-cloud/global/images/coreos-stable-522-5-0-v20150114",
        "state": "DEPRECATED"
      },
      "description": "CoreOS stable 522.4.0",
      "diskSizeGb": "9",
      "id": "8598912170882689535",
      "kind": "compute#image",
      "name": "coreos-stable-522-4-0-v20150108",
      "rawDisk": {
        "containerType": "TAR",
        "source": ""
      },
      "selfLink": "https://www.googleapis.com/compute/v1/projects/coreos-cloud/global/images/coreos-stable-522-4-0-v20150108",
      "sourceType": "RAW",
      "status": "READY"
    },
    {
      "archiveSizeBytes": "220922810",
      "creationTimestamp": "2015-01-14T12:19:32.475-08:00",
      "deprecated": {
        "replacement": "https://www.googleapis.com/compute/v1/projects/coreos-cloud/global/images/coreos-stable-522-6-0-v20150128",
        "state": "DEPRECATED"
      },
      "description": "CoreOS stable 522.5.0",
      "diskSizeGb": "9",
      "id": "6256570403977998200",
      "kind": "compute#image",
      "name": "coreos-stable-522-5-0-v20150114",
      "rawDisk": {
        "containerType": "TAR",
        "source": ""
      },
      "selfLink": "https://www.googleapis.com/compute/v1/projects/coreos-cloud/global/images/coreos-stable-522-5-0-v20150114",
      "sourceType": "RAW",
      "status": "READY"
    },
    {
      "archiveSizeBytes": "222341413",
      "creationTimestamp": "2015-01-28T10:07:01.882-08:00",
      "deprecated": {
        "replacement": "https://www.googleapis.com/compute/v1/projects/coreos-cloud/global/images/coreos-stable-557-2-0-v20150210",
        "state": "DEPRECATED"
      },
      "description": "CoreOS stable 522.6.0",
      "diskSizeGb": "9",
      "id": "14285216097378456093",
      "kind": "compute#image",
      "name": "coreos-stable-522-6-0-v20150128",
      "rawDisk": {
        "containerType": "TAR",
        "source": ""
      },
      "selfLink": "https://www.googleapis.com/compute/v1/projects/coreos-cloud/global/images/coreos-stable-522-6-0-v20150128",
      "sourceType": "RAW",
      "status": "READY"
    },
    {
      "archiveSizeBytes": "153867002",
      "creationTimestamp": "2015-02-10T09:53:29.258-08:00",
      "deprecated": {
        "replacement": "https://www.googleapis.com/compute/v1/projects/coreos-cloud/global/images/coreos-stable-607-0-0-v20150317",
        "state": "DEPRECATED"
      },
      "description": "CoreOS stable 557.2.0",
      "diskSizeGb": "9",
      "id": "957640553034056389",
      "kind": "compute#image",
      "name": "coreos-stable-557-2-0-v20150210",
      "rawDisk": {
        "containerType": "TAR",
        "source": ""
      },
      "selfLink": "https://www.googleapis.com/compute/v1/projects/coreos-cloud/global/images/coreos-stable-557-2-0-v20150210",
      "sourceType": "RAW",
      "status": "READY"
    },
    {
      "archiveSizeBytes": "150625020",
      "creationTimestamp": "2015-03-17T09:56:27.020-07:00",
      "deprecated": {
        "replacement": "https://www.googleapis.com/compute/v1/projects/coreos-cloud/global/images/coreos-stable-633-1-0-v20150414",
        "state": "DEPRECATED"
      },
      "description": "CoreOS stable 607.0.0",
      "diskSizeGb": "9",
      "id": "8800548086752862804",
      "kind": "compute#image",
      "name": "coreos-stable-607-0-0-v20150317",
      "rawDisk": {
        "containerType": "TAR",
        "source": ""
      },
      "selfLink": "https://www.googleapis.com/compute/v1/projects/coreos-cloud/global/images/coreos-stable-607-0-0-v20150317",
      "sourceType": "RAW",
      "status": "READY"
    },
    {
      "archiveSizeBytes": "172155541",
      "creationTimestamp": "2015-04-14T12:01:23.615-07:00",
      "deprecated": {
        "replacement": "https://www.googleapis.com/compute/v1/projects/coreos-cloud/global/images/coreos-stable-647-0-0-v20150512",
        "state": "DEPRECATED"
      },
      "description": "CoreOS stable 633.1.0",
      "diskSizeGb": "9",
      "id": "5298942163210525420",
      "kind": "compute#image",
      "name": "coreos-stable-633-1-0-v20150414",
      "rawDisk": {
        "containerType": "TAR",
        "source": ""
      },
      "selfLink": "https://www.googleapis.com/compute/v1/projects/coreos-cloud/global/images/coreos-stable-633-1-0-v20150414",
      "sourceType": "RAW",
      "status": "READY"
    },
    {
      "archiveSizeBytes": "172843187",
      "creationTimestamp": "2015-05-12T09:59:41.987-07:00",
      "deprecated": {
        "replacement": "https://www.googleapis.com/compute/v1/projects/coreos-cloud/global/images/coreos-stable-647-2-0-v20150528",
        "state": "DEPRECATED"
      },
      "description": "CoreOS stable 647.0.0",
      "diskSizeGb": "9",
      "id": "4152994865161932690",
      "kind": "compute#image",
      "name": "coreos-stable-647-0-0-v20150512",
      "rawDisk": {
        "containerType": "TAR",
        "source": ""
      },
      "selfLink": "https://www.googleapis.com/compute/v1/projects/coreos-cloud/global/images/coreos-stable-647-0-0-v20150512",
      "sourceType": "RAW",
      "status": "READY"
    },
    {
      "archiveSizeBytes": "173189041",
      "creationTimestamp": "2015-05-27T17:06:05.446-07:00",
      "deprecated": {
        "replacement": "https://www.googleapis.com/compute/v1/projects/coreos-cloud/global/images/coreos-stable-681-0-0-v20150609",
        "state": "DEPRECATED"
      },
      "description": "CoreOS stable 647.2.0",
      "diskSizeGb": "9",
      "id": "1245008775464346882",
      "kind": "compute#image",
      "name": "coreos-stable-647-2-0-v20150528",
      "rawDisk": {
        "containerType": "TAR",
        "source": ""
      },
      "selfLink": "https://www.googleapis.com/compute/v1/projects/coreos-cloud/global/images/coreos-stable-647-2-0-v20150528",
      "sourceType": "RAW",
      "status": "READY"
    },
    {
      "archiveSizeBytes": "233041068",
      "creationTimestamp": "2015-06-09T09:56:04.854-07:00",
      "deprecated": {
        "replacement": "https://www.googleapis.com/compute/v1/projects/coreos-cloud/global/images/coreos-stable-681-1-0-v20150617",
        "state": "DEPRECATED"
      },
      "description": "CoreOS stable 681.0.0",
      "diskSizeGb": "9",
      "id": "8578480526453285963",
      "kind": "compute#image",
      "name": "coreos-stable-681-0-0-v20150609",
      "rawDisk": {
        "containerType": "TAR",
        "source": ""
      },
      "selfLink": "https://www.googleapis.com/compute/v1/projects/coreos-cloud/global/images/coreos-stable-681-0-0-v20150609",
      "sourceType": "RAW",
      "status": "READY"
    },
    {
      "archiveSizeBytes": "230482126",
      "creationTimestamp": "2015-06-17T12:00:30.796-07:00",
      "deprecated": {
        "replacement": "https://www.googleapis.com/compute/v1/projects/coreos-cloud/global/images/coreos-stable-681-2-0-v20150618",
        "state": "DEPRECATED"
      },
      "description": "CoreOS, CoreOS stable, 681.1.0, amd64-usr published on 2015-06-17",
      "diskSizeGb": "9",
      "id": "7354585696585940257",
      "kind": "compute#image",
      "name": "coreos-stable-681-1-0-v20150617",
      "rawDisk": {
        "containerType": "TAR",
        "source": ""
      },
      "selfLink": "https://www.googleapis.com/compute/v1/projects/coreos-cloud/global/images/coreos-stable-681-1-0-v20150617",
      "sourceType": "RAW",
      "status": "READY"
    },
    {
      "archiveSizeBytes": "230355915",
      "creationTimestamp": "2015-06-18T08:57:33.614-07:00",
      "deprecated": {
        "replacement": "https://www.googleapis.com/compute/v1/projects/coreos-cloud/global/images/coreos-stable-717-1-0-v20150707",
        "state": "DEPRECATED"
      },
      "description": "CoreOS, CoreOS stable, 681.2.0, amd64-usr published on 2015-06-18",
      "diskSizeGb": "9",
      "id": "290164668548207746",
      "kind": "compute#image",
      "name": "coreos-stable-681-2-0-v20150618",
      "rawDisk": {
        "containerType": "TAR",
        "source": ""
      },
      "selfLink": "https://www.googleapis.com/compute/v1/projects/coreos-cloud/global/images/coreos-stable-681-2-0-v20150618",
      "sourceType": "RAW",
      "status": "READY"
    },
    {
      "archiveSizeBytes": "236430192",
      "creationTimestamp": "2015-07-07T09:55:00.055-07:00",
      "deprecated": {
        "replacement": "https://www.googleapis.com/compute/v1/projects/coreos-cloud/global/images/coreos-stable-717-3-0-v20150710",
        "state": "DEPRECATED"
      },
      "description": "CoreOS, CoreOS stable, 717.1.0, amd64-usr published on 2015-07-07",
      "diskSizeGb": "9",
      "id": "7079315611883518603",
      "kind": "compute#image",
      "name": "coreos-stable-717-1-0-v20150707",
      "rawDisk": {
        "containerType": "TAR",
        "source": ""
      },
      "selfLink": "https://www.googleapis.com/compute/v1/projects/coreos-cloud/global/images/coreos-stable-717-1-0-v20150707",
      "sourceType": "RAW",
      "status": "READY"
    },
    {
      "archiveSizeBytes": "236058478",
      "creationTimestamp": "2015-07-10T07:28:13.346-07:00",
      "deprecated": {
        "replacement": "https://www.googleapis.com/compute/v1/projects/coreos-cloud/global/images/coreos-stable-723-3-0-v20150804",
        "state": "DEPRECATED"
      },
      "description": "CoreOS, CoreOS stable, 717.3.0, amd64-usr published on 2015-07-10",
      "diskSizeGb": "9",
      "id": "1483462336071231634",
      "kind": "compute#image",
      "name": "coreos-stable-717-3-0-v20150710",
      "rawDisk": {
        "containerType": "TAR",
        "source": ""
      },
      "selfLink": "https://www.googleapis.com/compute/v1/projects/coreos-cloud/global/images/coreos-stable-717-3-0-v20150710",
      "sourceType": "RAW",
      "status": "READY"
    },
    {
      "archiveSizeBytes": "236497520",
      "creationTimestamp": "2015-08-04T10:08:18.199-07:00",
      "deprecated": {
        "replacement": "https://www.googleapis.com/compute/v1/projects/coreos-cloud/global/images/coreos-stable-766-3-0-v20150908",
        "state": "DEPRECATED"
      },
      "description": "CoreOS, CoreOS stable, 723.3.0, amd64-usr published on 2015-08-04",
      "diskSizeGb": "9",
      "id": "3320559001219714925",
      "kind": "compute#image",
      "name": "coreos-stable-723-3-0-v20150804",
      "rawDisk": {
        "containerType": "TAR",
        "source": ""
      },
      "selfLink": "https://www.googleapis.com/compute/v1/projects/coreos-cloud/global/images/coreos-stable-723-3-0-v20150804",
      "sourceType": "RAW",
      "status": "READY"
    },
    {
      "archiveSizeBytes": "230251987",
      "creationTimestamp": "2015-09-08T13:32:53.118-07:00",
      "description": "CoreOS, CoreOS stable, 766.3.0, amd64-usr published on 2015-09-08",
      "diskSizeGb": "9",
      "id": "4119971712014154522",
      "kind": "compute#image",
      "name": "coreos-stable-766-3-0-v20150908",
      "rawDisk": {
        "containerType": "TAR",
        "source": ""
      },
      "selfLink": "https://www.googleapis.com/compute/v1/projects/coreos-cloud/global/images/coreos-stable-766-3-0-v20150908",
      "sourceType": "RAW",
      "status": "READY"
    }
  ],
  "kind": "compute#imageList",
  "selfLink": "https://www.googleapis.com/compute/v1/projects/coreos-cloud/global/images"
}
